*-*-*-*-*-*-*-*-*-*-*-*-*-*-*-*-*-*-*-*-*-*-*-*-*-*-*-*-*-*-*-*-*-*-*-*-*-*-*-*
Date: 6/12/2014 11:14:38 AM
QuickNotes.Qnotes.SaveQuickPost(): c1dbee01-cfcf-464d-979b-0cc855357cb1 : Added JavaScript to only show Social Icons that have values in them
